2 Spatial data in R – Spatial Data Visualization with tmap
…
The sf package can read all of the spatial data formats mentioned in Section 2.2.1 using the read_sf() function3. 

library(sf)
worldvector = read_sf("data/worldvector.gpkg")

The new object, worldvector, has a sf class. It has 185 features (rows or geometries) and 15 fields (columns with attributes). There is also an 16th column, geom, that stores geometries of each feature. Objects of class sf also display a header containing spatial metadata. It includes geometry type, dimension (XY, XYZ, XYM, XYZM), bounding box (bbox), and information about the used Coordinate Reference System (CRS).

worldvector

Simple feature collection with 185 features and 15 fields
Geometry type: MULTIPOLYGON
Dimension:     XY
Bounding box:  xmin: -16331900 ymin: -8392908 xmax: 16886150 ymax: 8315884
Projected CRS: WGS 84 / Equal Earth Greenwich
# A tibble: 185 × 16
   GEO   name    wb_region wb_income_region population CO2_emissions gdp_per_cap
   <chr> <chr>   <chr>     <chr>                 <dbl>         <dbl>       <dbl>
 1 AUS   Austra… East Asi… High income        42900000       15.3          56800
 2 AZE   Azerba… Europe &… Upper middle in…    9190000        3.94          5770
 3 BIH   Bosnia… Europe &… Upper middle in…    1640000        6.38          6030
 4 BGD   Bangla… South As… Lower middle in…  151000000        0.474         1200
 5 BEL   Belgium Europe &… High income        12500000        8.32         47200
 6 BFA   Burkin… Sub-Saha… Low income         83200000        0.162          712
 7 BGR   Bulgar… Europe &… Upper middle in…    3590000        5.85          8650
 8 BDI   Burundi Sub-Saha… Low income         50900000        0.0447         211
 9 BEN   Benin   Sub-Saha… Low income         47200000        0.614          897
10 BRN   Brunei  East Asi… High income          390000       22.2          31400
# ℹ 175 more rows
# ℹ 9 more variables: life_expectancy <dbl>, corruption_perception_index <dbl>,
#   democracy_score <dbl>, hdi <dbl>, energy_use_per_cap <dbl>,
#   literacy_rate <dbl>, demo_corr <dbl>, demo_corr_rank <int>,
#   geom <MULTIPOLYGON [m]>
…
